…
activity = read_csv("data/p8105_mtp_data.csv", col_types = cols()) %>% 
  janitor::clean_names() %>%
  mutate(day = fct_relevel(day, str_c(c("Sunday", "Monday", "Tuesday", "Wednesday",
                                        "Thursday", "Friday", "Saturday")))) %>% 
  arrange(week, day) %>% 
  mutate(overall_day = seq(1:nrow(.))) %>% 
  gather(key = minute_of_day, value = activity_count, activity_1:activity_1440) %>% 
  separate(minute_of_day, into = c("activity", "minute_of_day"), sep = "_") %>% 
  select(-activity) %>% 
  mutate(minute_of_day = as.numeric(minute_of_day)) %>% 
  mutate(overall_minutes = seq(1:nrow(.))) 

activity

## # A tibble: 473,760 x 6
##     week day       overall_day minute_of_day activity_count overall_minutes
##    <int> <fct>           <int>         <dbl>          <dbl>           <int>
##  1     1 Sunday              1             1             1                1
##  2     1 Monday              2             1             1                2
##  3     1 Tuesday             3             1             1                3
##  4     1 Wednesday           4             1             1                4
##  5     1 Thursday            5             1             1                5
##  6     1 Friday              6             1             1                6
##  7     1 Saturday            7             1             1                7
##  8     2 Sunday              8             1             1                8
##  9     2 Monday              9             1             1                9
## 10     2 Tuesday            10             1            22.              10
## # ... with 473,750 more rows
…
